{
    "docks": [],
    "paths": [
        {
            "name": "Tree",
            "path": {
                "angles": [
                    0
                ],
                "points": [
                    0.49812606305304924,
                    -5.266421446777675,
                    0
                ]
            }
        }
    ]
}