{
    "docks": [],
    "paths": [
        {
            "name": "Women'sHealthCentre2",
            "path": {
                "angles": [
                    -162,
                    -162,
                    -239,
                    -60,
                    -127
                ],
                "points": [
                    2.856224392481322,
                    1.032143054317152,
                    0,
                    0.6954677928579707,
                    0.5235716181674182,
                    0,
                    -0.9465357342367555,
                    0.4871430461960194,
                    0,
                    -2.291292321700763,
                    2.665000221505762,
                    0,
                    -0.8043430876345609,
                    2.2064287861010867,
                    0
                ]
            }
        },
        {
            "name": "Chfg",
            "path": {
                "angles": [
                    -97
                ],
                "points": [
                    2.77048008297246,
                    1.1500001989305033,
                    0
                ]
            }
        },
        {
            "name": "Wide",
            "path": {
                "angles": [
                    -226,
                    -226,
                    -59,
                    -105
                ],
                "points": [
                    -0.3922940338921007,
                    0.012857324842896135,
                    0,
                    -1.555558499562342,
                    1.4635716321745096,
                    0,
                    -2.167915776638143,
                    2.737143079723632,
                    0,
                    -0.4916145257398662,
                    2.2978573588920503,
                    0
                ]
            }
        },
        {
            "name": "Notification",
            "path": {
                "angles": [
                    0
                ],
                "points": [
                    -1.7376670492687165,
                    1.571978227196487,
                    0
                ]
            }
        },
        {
            "name": "Dock",
            "path": {
                "angles": [
                    -63
                ],
                "points": [
                    2.1248208919701956,
                    2.1330771366564125,
                    0
                ]
            }
        }
    ]
}