{
    "docks": [
        {
            "angle": 7.66692742722,
            "x": 339.963587813,
            "y": 148.705917184
        }
    ],
    "paths": [
        {
            "name": "Demo1Path",
            "path": {
                "angles": [
                    -47
                ],
                "points": [
                    -0.07169634192962293,
                    -2.4063331397126144,
                    0
                ]
            }
        }
    ]
}