Start 3.99 -22.2 1.0
Table1 13.1 -12.0 1.0
Table2 14.5 -12.9 1.0
Table3 22.3 -15.4 1.0
Table4 22.3 -15.4 1.0
Table5 22.2 -16.7 1.0
Table6.1 18.7 -16.2 1.0
Table6.2 17 -15.9 1.0
Table7.1 18.7 -19.1 1.0
Table7.2 17.1 -19.1 1.0
Table8.1 10.8 -19.8 1.0
Table8.2 10.7 -18.9 1.0
Table9.1 10.6 -15.6 1.0
Table9.2 10.8 -14.7 1.0
Table10 -9.53 -0.88 1.0
Table11 -11.97 -0.88 1.0
Table12 -14.87 -0.88 1.0
Table13 -18.59 -3.47 1.0
Table14 -18.59 -9.00 1.0
Table15.1 -17.49 -6.17 1.0
Table15.2 -14.28 -6.37 1.0
Table16.1 -12.48 -6.20 1.0
Table16.2 -8.36 -6.03 1.0
Table17.1 10.2 -21.7 1.0
Table17.2 10.9 -23.5 1.0
Table18.1 10.8 -26.6 1.0
Table18.2 9.97 -25.1 1.0
Table19.1 13.1 -26 1.0
Table19.2 12.9 -24.8 1.0
Table20.1 13.2 -23.4 1.0
Table20.2 13.3 -21.6 1.0
Table21.1 17 -22.5 1.0
Table21.2 15.3 -22 1.0
Table22.1 17.5 -22.5 1.0
Table22.2 19.3 -21.9 1.0
