{
    "docks": [
        {
            "angle": -127.645794925,
            "x": 397.134213968,
            "y": 232.388827934
        }
    ],
    "paths": [
        {
            "name": "Tr",
            "path": {
                "angles": [
                    0
                ],
                "points": [
                    4.731675951819161,
                    -0.3809727491720294,
                    0
                ]
            }
        },
        {
            "name": "Ty",
            "path": {
                "angles": [
                    -189,
                    -221
                ],
                "points": [
                    1.2484326566715493,
                    -1.2780538436206592,
                    0,
                    -0.5230268291847132,
                    -1.4505943867322522,
                    0
                ]
            }
        },
        {
            "name": "Un",
            "path": {
                "angles": [
                    -187
                ],
                "points": [
                    3.8242164788375046,
                    -2.0136214221490363,
                    0
                ]
            }
        }
    ]
}