{
    "docks": [
        {
            "angle": 178.201376199,
            "x": 491.637978991,
            "y": 274.633163295
        }
    ],
    "paths": [
        {
            "name": "Ty",
            "path": {
                "angles": [
                    0
                ],
                "points": [
                    2.1980542924436386,
                    0.9520002436637895,
                    0
                ]
            }
        }
    ]
}