{
    "docks": [],
    "paths": [
        {
            "name": "Michalfinal",
            "path": {
                "angles": [
                    -211,
                    -95
                ],
                "points": [
                    -0.0649998191744088,
                    0.31928590083761055,
                    0,
                    -2.3849998537451,
                    -0.5821426840232936,
                    0
                ]
            }
        },
        {
            "name": "Michal11",
            "path": {
                "angles": [
                    -59,
                    -183,
                    -102,
                    -234,
                    -59,
                    -308
                ],
                "points": [
                    -0.09857124824608852,
                    0.9800001963973064,
                    0,
                    0.3221430437373276,
                    0.0357144680406385,
                    0,
                    -1.0571426911013455,
                    0.464285902998279,
                    0,
                    5.606428836765037,
                    -2.8414284319749883,
                    0,
                    -2.7328570017857188,
                    -0.07642839077327897,
                    0,
                    -2.1778569935155754,
                    -1.077142691399369,
                    0
                ]
            }
        },
        {
            "name": "Room",
            "path": {
                "angles": [
                    -74,
                    -121,
                    -156,
                    -218
                ],
                "points": [
                    -0.24071410750703995,
                    0.8071430509643902,
                    0,
                    -1.0614284054509222,
                    0.34000018686056266,
                    0,
                    -2.080714134925176,
                    -0.6014283985963882,
                    0,
                    -2.9492855764393293,
                    0.02071446781712052,
                    0
                ]
            }
        },
        {
            "name": "Room1",
            "path": {
                "angles": [
                    -51,
                    -197,
                    -139,
                    -182
                ],
                "points": [
                    -0.44107133288468886,
                    0.9835716250219522,
                    0,
                    0.17750010490417406,
                    0.267143042917763,
                    0,
                    -1.211071344358581,
                    -0.0035712468304793543,
                    0,
                    -2.593928507821902,
                    -0.17142839218888814,
                    0
                ]
            }
        },
        {
            "name": "Docktest",
            "path": {
                "angles": [
                    -185
                ],
                "points": [
                    -0.3385712518223682,
                    0.3664287586829508,
                    0
                ]
            }
        }
    ]
}