{
    "docks": [
        {
            "angle": 5.88209605211,
            "x": 338.873722858,
            "y": 142.764431645
        }
    ],
    "paths": [
        {
            "name": "MichalDock1",
            "path": {
                "angles": [
                    -132,
                    -135
                ],
                "points": [
                    1.4359791283763232,
                    0.11938118363774822,
                    0,
                    0.4001097767973574,
                    -1.9546188472672605,
                    0
                ]
            }
        }
    ]
}