{
    "docks": [
        {
            "angle": 141.301329254,
            "x": 690.430825843,
            "y": 373.694104823
        }
    ],
    "paths": [
        {
            "name": "Test",
            "path": {
                "angles": [
                    -177,
                    -149
                ],
                "points": [
                    1.0167623581129062,
                    -0.9828570591142533,
                    0,
                    -1.3366797370419496,
                    -1.5924175077578513,
                    0
                ]
            }
        },
        {
            "name": "L",
            "path": {
                "angles": [
                    -64
                ],
                "points": [
                    0.4834287842682481,
                    -0.07142839069877162,
                    0
                ]
            }
        },
        {
            "name": "T",
            "path": {
                "angles": [
                    -235
                ],
                "points": [
                    -0.26780932216416814,
                    1.1850001994520427,
                    0
                ]
            }
        },
        {
            "name": "E",
            "path": {
                "angles": [
                    0
                ],
                "points": [
                    -0.3683807522342272,
                    1.2164287713489381,
                    0
                ]
            }
        }
    ]
}